…
```r
thinner <- read_csv("data/blood_thinner.csv")
```


```r
thinner
```

```
## # A tibble: 90 x 2
##    group     outcome 
##    <chr>     <chr>   
##  1 treatment survived
##  2 control   survived
##  3 control   died    
##  4 control   died    
##  5 control   died    
##  6 treatment survived
##  7 control   died    
##  8 control   died    
##  9 treatment died    
## 10 treatment survived
## # ... with 80 more rows
```
…
