Chapter 19 Hypothesis Testing with Simulation | Computational Probability and Statistics - MASTER
…
We want to understand whether blood thinners are helpful or harmful. We’ll consider both of these possibilities using a two-sided hypothesis test.

\(H_0\): Blood thinners do not have an overall survival effect; survival rate is independent of experimental treatment group. \(p_c - p_t = 0\).
\(H_A\): Blood thinners have an impact on survival, either positive or negative, but not zero. \(p_c - p_t \neq 0\).

Notice here that we accelerated the process by already defining our test statistic, our metric, in the hypothesis. It is the difference in survival rates for the control and treatment groups. This is a similar metric to what we used in the case study. We could use others but this will allow us to use functions from the mosaic package and will also help us to understand metrics for mathematically derived sampling distributions.

There were 50 patients in the experiment who did not receive a blood thinner and 40 patients who did. The study results are in the file blood_thinner.csv.

thinner <- read_csv("data/blood_thinner.csv")

thinner

## # A tibble: 90 x 2
##    group     outcome 
##    <chr>     <chr>   
##  1 treatment survived
##  2 control   survived
##  3 control   died    
##  4 control   died    
##  5 control   died    
##  6 treatment survived
##  7 control   died    
##  8 control   died    
##  9 treatment died    
## 10 treatment survived
## # ... with 80 more rows
…
